Week 13a
…
---
# read in the files

Next, read in the files using map instead of a for loop while retaining the filename as a column. 

```r
data<-files %>%
  set_names()%>% # set's the id of each list to the file name
  map_df(read_csv,.id = "filename") # map everything to a dataframe and put the id in a column called filename

data
```

```
## # A tibble: 3,352 x 4
##    filename                             date                Temperature Salinity
##    <chr>                                <dttm>                    <dbl>    <dbl>
##  1 C:/Users/nyssa/Desktop/Repositories~ 2021-01-15 08:24:40        23.3     34.8
##  2 C:/Users/nyssa/Desktop/Repositories~ 2021-01-15 08:24:50        23.3     34.6
##  3 C:/Users/nyssa/Desktop/Repositories~ 2021-01-15 08:25:00        23.3     34.9
##  4 C:/Users/nyssa/Desktop/Repositories~ 2021-01-15 08:25:10        23.3     34.7
##  5 C:/Users/nyssa/Desktop/Repositories~ 2021-01-15 08:25:20        23.3     34.5
##  6 C:/Users/nyssa/Desktop/Repositories~ 2021-01-15 08:25:30        23.3     34.4
##  7 C:/Users/nyssa/Desktop/Repositories~ 2021-01-15 08:25:40        23.3     34.3
##  8 C:/Users/nyssa/Desktop/Repositories~ 2021-01-15 08:25:50        23.3     34.3
##  9 C:/Users/nyssa/Desktop/Repositories~ 2021-01-15 08:26:00        23.3     34.2
## 10 C:/Users/nyssa/Desktop/Repositories~ 2021-01-15 08:26:10        23.3     34.1
## # ... with 3,342 more rows
```
…
